R Interface to EDDS of CBRT • cbRt
…
Examples

Single Series

Following example retrieves (USDTRY) US Dollar (Buying) Exchange Rate.

library(cbRt)
series    <- "TP.DK.USD.A"
start_date <- "01-01-2017"
end_date   <- "01-01-2018"
token     <- Sys.getenv("EVDS_TOKEN")

(usd_try <- cbrt_get(series, start_date, end_date))
#> # A tibble: 366 x 2
#>    Date       TP_DK_USD_A
#>    <date>           <dbl>
#>  1 2017-01-01       NA   
#>  2 2017-01-02        3.52
#>  3 2017-01-03        3.53
#>  4 2017-01-04        3.57
#>  5 2017-01-05        3.58
#>  6 2017-01-06        3.59
#>  7 2017-01-07       NA   
#>  8 2017-01-08       NA   
#>  9 2017-01-09        3.61
#> 10 2017-01-10        3.70
#> # … with 356 more rows
…
NOTE that API call returns empty columns. cbrt_get function also removes them.

(dat <- cbrt_get(series, start_date, end_date, as = "tsibble"))
#> # A tsibble: 188 x 5 [1D]
#>    Date       TP_AB_B1 TP_AB_C2 TP_BKEA_S001 TP_KB_O06_TRL
#>    <date>        <dbl>    <dbl>        <dbl>         <dbl>
#>  1 2017-01-01    15933       NA            0    343279700.
#>  2 2017-01-06       NA    96933           NA           NA 
#>  3 2017-01-13       NA    95292           NA           NA 
#>  4 2017-01-20       NA    92296           NA           NA 
#>  5 2017-01-27       NA    92517           NA           NA 
#>  6 2017-02-01    16648       NA           NA           NA 
#>  7 2017-02-03       NA    91522           NA           NA 
#>  8 2017-02-10       NA    92798           NA           NA 
#>  9 2017-02-17       NA    89049           NA           NA 
#> 10 2017-02-24       NA    91088           NA           NA 
#> # … with 178 more rows

Series with Location Data

Following are examples for data with location attributes. Series is Hedonic House Price Index (HHPI)(2010=100)(CBRT)(Monthly). TP.HKFE02 and TP.HKFE03 are price indices codes for Istanbul and Ankara, respectively. This series can be used to draw maps. At this time there is no support in the package though.

# Single Series
series <- "TP.HKFE02"
(hhpi <- cbrt_get(series, start_date, end_date))
#> # A tibble: 37 x 2
#>    Date       TP_HKFE02
#>    <date>         <dbl>
#>  1 2017-01-01      97.5
#>  2 2017-02-01      98.6
#>  3 2017-03-01      99.4
#>  4 2017-04-01      99.8
#>  5 2017-05-01     100. 
#>  6 2017-06-01     100. 
#>  7 2017-07-01     100. 
#>  8 2017-08-01     100. 
#>  9 2017-09-01     100. 
#> 10 2017-10-01     101. 
#> # … with 27 more rows

# Multiple Series
series <- c("TP.HKFE02", "TP.HKFE03")
(hhpi <- cbrt_get(series, start_date, end_date))
#> # A tibble: 37 x 3
#>    Date       TP_HKFE02 TP_HKFE03
#>    <date>         <dbl>     <dbl>
#>  1 2017-01-01      97.5      96.4
#>  2 2017-02-01      98.6      97.3
#>  3 2017-03-01      99.4      98.6
#>  4 2017-04-01      99.8      99.2
#>  5 2017-05-01     100.      100. 
#>  6 2017-06-01     100.      100. 
#>  7 2017-07-01     100.      100. 
#>  8 2017-08-01     100.       99.9
#>  9 2017-09-01     100.      101. 
#> 10 2017-10-01     101.      102. 
#> # … with 27 more rows
…
