…
Following example retrieves **(USDTRY) US Dollar (Buying) Exchange
Rate**. Since no optional arguments are supplied, default values for the
relevant series are applied. In this case `freq` is `1` (Daily),
`aggregationTypes` is `default` (Original), and `formulas` is `0`
(Level). Compare the data sets retrieved.

``` r
library(cbRt)
series    <- "TP.DK.USD.A"
startDate <- "01-01-2017"
endDate   <- "01-01-2018"
token     <- readLines("token")

(usd_try <- cbRt_get(series, startDate, endDate, token))
#> # A tibble: 366 x 2
#>    Date       TP_DK_USD_A
#>  * <date>           <dbl>
#>  1 2017-01-01       NA   
#>  2 2017-01-02        3.52
#>  3 2017-01-03        3.53
#>  4 2017-01-04        3.57
#>  5 2017-01-05        3.58
#>  6 2017-01-06        3.59
#>  7 2017-01-07       NA   
#>  8 2017-01-08       NA   
#>  9 2017-01-09        3.61
#> 10 2017-01-10        3.70
#> # ... with 356 more rows
(usd_try <- cbRt_get(series, startDate, endDate, token, aggregationTypes = "default", formulas = 0, freq = 1))
#> # A tibble: 366 x 2
#>    Date       TP_DK_USD_A
#>  * <date>           <dbl>
#>  1 2017-01-01       NA   
#>  2 2017-01-02        3.52
#>  3 2017-01-03        3.53
#>  4 2017-01-04        3.57
#>  5 2017-01-05        3.58
#>  6 2017-01-06        3.59
#>  7 2017-01-07       NA   
#>  8 2017-01-08       NA   
#>  9 2017-01-09        3.61
#> 10 2017-01-10        3.70
#> # ... with 356 more rows
```

We can get single series with multiple different formulas. In this
example, `formulas` is set to `0` (Level) and `1` (Percentage
Change).

``` r
(usd_try <- cbRt_get(series, startDate, endDate, token, formulas = c(0, 1)))
#> # A tibble: 366 x 3
#>    Date       TP_DK_USD_A `TP_DK_USD_A-1`
#>  * <date>           <dbl>           <dbl>
#>  1 2017-01-01       NA            NA     
#>  2 2017-01-02        3.52         NA     
#>  3 2017-01-03        3.53          0.415 
#>  4 2017-01-04        3.57          1.13  
#>  5 2017-01-05        3.58          0.0756
#>  6 2017-01-06        3.59          0.475 
#>  7 2017-01-07       NA            NA     
#>  8 2017-01-08       NA            NA     
#>  9 2017-01-09        3.61         NA     
#> 10 2017-01-10        3.70          2.45  
#> # ... with 356 more rows
```

**TODO:** Throw error in this case.

We cannot get single series with multiple different aggregation types,
which makes sense. In this example, `aggregationTypes` is set to `avg`
(Average) and `min` (Minimum). Result is daily original
observations.

``` r
(usd_try <- cbRt_get(series, startDate, endDate, token, aggregationTypes = c("avg", "min")))
#> # A tibble: 366 x 2
#>    Date       TP_DK_USD_A
#>  * <date>           <dbl>
#>  1 2017-01-01       NA   
#>  2 2017-01-02        3.52
#>  3 2017-01-03        3.53
#>  4 2017-01-04        3.57
#>  5 2017-01-05        3.58
#>  6 2017-01-06        3.59
#>  7 2017-01-07       NA   
#>  8 2017-01-08       NA   
#>  9 2017-01-09        3.61
#> 10 2017-01-10        3.70
#> # ... with 356 more rows
```

**TODO:** Gives an extra column. Delete this.

We can get single series with multiple different aggregation types and
multiple different formulas. In the first column `aggregationTypes` is
`min` (Minimum) and `formulas` is `1` (Percentage Change). In the second
column `aggregationTypes` is `max` (Maximum) and `formulas` is `2`
(Difference).

``` r
(usd_try <- cbRt_get(series, startDate, endDate, token, aggregationTypes = c("min", "max"), formulas = c(1, 2)))
#> # A tibble: 366 x 4
#>    Date       `TP_DK_USD_A-1` `TP_DK_USD_A-2` TP_DK_USD_A
#>  * <date>               <dbl>           <dbl>       <dbl>
#>  1 2017-01-01         NA             NA                NA
#>  2 2017-01-02         NA             NA                NA
#>  3 2017-01-03          0.415          0.0146           NA
#>  4 2017-01-04          1.13           0.0399           NA
#>  5 2017-01-05          0.0756         0.00270          NA
#>  6 2017-01-06          0.475          0.0170           NA
#>  7 2017-01-07         NA             NA                NA
#>  8 2017-01-08         NA             NA                NA
#>  9 2017-01-09         NA             NA                NA
#> 10 2017-01-10          2.45           0.0886           NA
#> # ... with 356 more rows
```

### Multiple Series

Following example retrieves **(USDTRY) US Dollar (Buying) Exchange
Rate** and **(EURTRY) Euro (Buying) Exchange Rate**. Since no optional
arguments are supplied, default values for the relevant series are
applied. In this case `freq` is `1` (Daily), `aggregationTypes` is
`default` (Original), and `formualas` is `0` (Level). Compare the data
sets retrieved.

``` r
series <- c("TP.DK.USD.A", "TP.DK.EUR.A")

(usd_eur_try <- cbRt_get(series, startDate, endDate, token))
#> # A tibble: 366 x 3
#>    Date       TP_DK_USD_A TP_DK_EUR_A
#>  * <date>           <dbl>       <dbl>
#>  1 2017-01-01       NA          NA   
#>  2 2017-01-02        3.52        3.71
#>  3 2017-01-03        3.53        3.71
#>  4 2017-01-04        3.57        3.73
#>  5 2017-01-05        3.58        3.73
#>  6 2017-01-06        3.59        3.78
#>  7 2017-01-07       NA          NA   
#>  8 2017-01-08       NA          NA   
#>  9 2017-01-09        3.61        3.83
#> 10 2017-01-10        3.70        3.90
#> # ... with 356 more rows
(usd_eur_try <- cbRt_get(series, startDate, endDate, token, freq = 1, formulas = 0))
#> # A tibble: 366 x 3
#>    Date       TP_DK_USD_A TP_DK_EUR_A
#>  * <date>           <dbl>       <dbl>
#>  1 2017-01-01       NA          NA   
#>  2 2017-01-02        3.52        3.71
#>  3 2017-01-03        3.53        3.71
#>  4 2017-01-04        3.57        3.73
#>  5 2017-01-05        3.58        3.73
#>  6 2017-01-06        3.59        3.78
#>  7 2017-01-07       NA          NA   
#>  8 2017-01-08       NA          NA   
#>  9 2017-01-09        3.61        3.83
#> 10 2017-01-10        3.70        3.90
#> # ... with 356 more rows
```

**TODO:** Gives an extra column. Delete this.

We can get multiple series with multiple different formulas. In this
example, `formulas` is set to `0` (Level) and `1` (Percentage
Change).

``` r
(usd_eur_try <- cbRt_get(series, startDate, endDate, token, formulas = c(0, 1)))
#> # A tibble: 366 x 4
#>    Date       TP_DK_USD_A `TP_DK_EUR_A-1` TP_DK_EUR_A
#>  * <date>           <dbl>           <dbl>       <dbl>
#>  1 2017-01-01       NA            NA               NA
#>  2 2017-01-02        3.52         NA               NA
#>  3 2017-01-03        3.53        - 0.0350          NA
#>  4 2017-01-04        3.57          0.518           NA
#>  5 2017-01-05        3.58          0.0349          NA
#>  6 2017-01-06        3.59          1.39            NA
#>  7 2017-01-07       NA            NA               NA
#>  8 2017-01-08       NA            NA               NA
#>  9 2017-01-09        3.61         NA               NA
#> 10 2017-01-10        3.70          1.87            NA
#> # ... with 356 more rows
```

**TODO:** Throw error in this case.

We cannot get multiple series with multiple different aggregation types.
In this example, `aggregationTypes` is set to `avg` (Average) and `min`
(Minimum). Result is daily original
observations.

``` r
(usd_eur_try <- cbRt_get(series, startDate, endDate, token, aggregationTypes = c("avg", "min")))
#> # A tibble: 366 x 3
#>    Date       TP_DK_USD_A TP_DK_EUR_A
#>  * <date>           <dbl>       <dbl>
#>  1 2017-01-01       NA          NA   
#>  2 2017-01-02        3.52        3.71
#>  3 2017-01-03        3.53        3.71
#>  4 2017-01-04        3.57        3.73
#>  5 2017-01-05        3.58        3.73
#>  6 2017-01-06        3.59        3.78
#>  7 2017-01-07       NA          NA   
#>  8 2017-01-08       NA          NA   
#>  9 2017-01-09        3.61        3.83
#> 10 2017-01-10        3.70        3.90
#> # ... with 356 more rows
```

**TODO:** Gives an extra column. Delete this.

We can get multiple series with multiple different aggregation types and
multiple different formulas. In the first column `aggregationTypes` is
`avg` (Average) and `formulas` is `0` (Level). In the second column
`aggregationTypes` is `min` (Minimum) and `formulas` is `1` (Percentage
Change).

``` r
(usd_eur_try <- cbRt_get(series, startDate, endDate, token, 
                        aggregationTypes = c("avg", "min"), formulas = c(0, 1)))
#> # A tibble: 366 x 4
#>    Date       TP_DK_USD_A `TP_DK_EUR_A-1` TP_DK_EUR_A
#>  * <date>           <dbl>           <dbl>       <dbl>
#>  1 2017-01-01       NA            NA               NA
#>  2 2017-01-02        3.52         NA               NA
#>  3 2017-01-03        3.53        - 0.0350          NA
#>  4 2017-01-04        3.57          0.518           NA
#>  5 2017-01-05        3.58          0.0349          NA
#>  6 2017-01-06        3.59          1.39            NA
#>  7 2017-01-07       NA            NA               NA
#>  8 2017-01-08       NA            NA               NA
#>  9 2017-01-09        3.61         NA               NA
#> 10 2017-01-10        3.70          1.87            NA
#> # ... with 356 more rows
```
…
